[gd_scene load_steps=2 format=3 uid="uid://dfbg52xushje0"]

[ext_resource type="PackedScene" uid="uid://bmd8675l1kdou" path="res://scenes/CoinsSmall.tscn" id="1"]

[node name="CoinsMedium" instance=ExtResource("1")]
coin_value = 50

[node name="Sprite2D" parent="." index="0"]
region_rect = Rect2(714, 187, 16, 16)
