[gd_scene load_steps=4 format=3 uid="uid://kct0603xc0x2"]

[ext_resource type="Script" path="res://scripts/Enemy.gd" id="1_umy74"]
[ext_resource type="Texture2D" uid="uid://cfftr74b63twd" path="res://sprites/kenny_pack/Spritesheet/roguelikeChar_transparent.png" id="2_e26uy"]

[sub_resource type="CircleShape2D" id="CircleShape2D_r72ji"]

[node name="Enemy" type="StaticBody2D"]
position = Vector2(0, 8)
script = ExtResource("1_umy74")

[node name="Node2D" type="Sprite2D" parent="."]
texture = ExtResource("2_e26uy")
region_enabled = true
region_rect = Rect2(0, 53, 16, 14)

[node name="CollisionShape2D" type="CollisionShape2D" parent="."]
shape = SubResource("CircleShape2D_r72ji")
